Trabajo
…
cat("Filas en test :", nrow(datos_test), "\n\n")

## Filas en test : 31810

# 3) Receta: muy sencilla (sin dummies ni normalización) ----------------------
# Los árboles de decisión NO necesitan estandarización ni one-hot encoding.

receta_arbol <- recipe(experiencia_agrupada ~ ., data = datos_train) |>
  
  step_zv(all_predictors())

summary(receta_arbol)

## # A tibble: 24 × 4
##    variable                         type      role      source  
##    <chr>                            <list>    <chr>     <chr>   
##  1 sexo                             <chr [3]> predictor original
##  2 edad                             <chr [2]> predictor original
##  3 nacionalidad                     <chr [3]> predictor original
##  4 nivel_educativo                  <chr [3]> predictor original
##  5 ingresos                         <chr [3]> predictor original
##  6 situacion_laboral                <chr [3]> predictor original
##  7 proposito                        <chr [3]> predictor original
##  8 canal_touroperador_agencia_viaje <chr [3]> predictor original
##  9 aloj_categ                       <chr [3]> predictor original
## 10 noches                           <chr [2]> predictor original
## # ℹ 14 more rows
…
